[
    {
        "from" : "",
        "to" : "_list/status_index/recent-status",
        "query" : {
            "descending" : true,
            "limit" : 20
        }
    },
    {
        "from": "/status.atom",
        "to" : "_list/status_index/recent-status",
        "query" : {
            "descending": true,
            "limit" : 20,
            "format" : "atom"
        }
    },
    {
        "from": "/data.atom",
        "to" : "_list/file_index/recent-data",
        "query" : {
            "descending": true,
            "limit" : 20,
            "format" : "atom"
        }
    }
]
