<?xml version="1.0" encoding="utf-8"?>
<kml xmlns="http://www.opengis.net/kml/2.2">
  <Document>
    {{>styles}}
    <Folder>
      <name>Float {{floatid}}</name>
      <description>Location and track for MLF2 Float {{floatid}}</description>
      {{>floatloc}}
      <Placemark>
	<name>Float {{floatid}} track</name>
	<description>MLF2 Float {{floatid}} track</description>
	<styleUrl>#floattrack</styleUrl>
	<LineString>
	  <extrude>0</extrude>
	  <tessellate>0</tessellate>
	  <altitudeMode>clampToGround</altitudeMode>
	  <coordinates>
	    {{#lon}}
	    {{lon}},{{lat}},0
	    {{/lon}}
	    {{#points}}
	    {{lon}},{{lat}},0
	    {{/points}}
	  </coordinates>
	</LineString>
      </Placemark>
    </Folder>
  </Document>
</kml>
